G04 #@! TF.FileFunction,Copper,L1,Top,Signal*
%FSLAX46Y46*%
G04 Gerber Fmt 4.6, Leading zero omitted, Abs format (unit mm)*
G04 Created by KiCad (PCBNEW 4.0.5+dfsg1-4) date Wed Nov 14 21:50:01 2018*
%MOMM*%
%LPD*%
G01*
G04 APERTURE LIST*
%ADD10C,0.100000*%
%ADD11C,1.501140*%
%ADD12R,1.900000X2.000000*%
%ADD13C,1.900000*%
%ADD14R,1.727200X2.032000*%
%ADD15O,1.727200X2.032000*%
%ADD16R,1.300000X1.300000*%
%ADD17C,1.300000*%
%ADD18R,1.400000X1.400000*%
%ADD19C,1.400000*%
%ADD20R,1.600000X0.550000*%
%ADD21R,0.550000X1.600000*%
%ADD22C,1.600000*%
%ADD23C,1.524000*%
%ADD24R,2.032000X1.727200*%
%ADD25O,2.032000X1.727200*%
%ADD26R,1.300000X1.500000*%
%ADD27R,0.450000X1.750000*%
%ADD28R,0.900000X0.800000*%
%ADD29R,0.450000X1.450000*%
%ADD30C,1.500000*%
%ADD31R,1.500000X1.300000*%
%ADD32R,1.727200X1.727200*%
%ADD33O,1.727200X1.727200*%
%ADD34C,0.600000*%
%ADD35C,0.250000*%
%ADD36C,0.350000*%
G04 APERTURE END LIST*
D10*
D11*
X65300000Y-134540940D03*
X65300000Y-129659060D03*
D12*
X90130000Y-118050000D03*
D13*
X87590000Y-118050000D03*
D11*
X46880000Y-102919060D03*
X46880000Y-107800940D03*
D14*
X53900000Y-119000000D03*
D15*
X56440000Y-119000000D03*
X58980000Y-119000000D03*
X61520000Y-119000000D03*
X64060000Y-119000000D03*
X66600000Y-119000000D03*
D16*
X59200000Y-130200000D03*
D17*
X61700000Y-130200000D03*
D16*
X64500000Y-142630000D03*
D17*
X67000000Y-142630000D03*
D16*
X47000000Y-97510000D03*
D17*
X44500000Y-97510000D03*
D18*
X99568000Y-109156500D03*
D19*
X94568000Y-109156500D03*
D18*
X83629500Y-108458000D03*
D19*
X83629500Y-103458000D03*
D16*
X42160000Y-109110000D03*
D17*
X42160000Y-106610000D03*
D20*
X70680000Y-129915000D03*
X70680000Y-130715000D03*
X70680000Y-131515000D03*
X70680000Y-132315000D03*
X70680000Y-133115000D03*
X70680000Y-133915000D03*
X70680000Y-134715000D03*
X70680000Y-135515000D03*
D21*
X72130000Y-136965000D03*
X72930000Y-136965000D03*
X73730000Y-136965000D03*
X74530000Y-136965000D03*
X75330000Y-136965000D03*
X76130000Y-136965000D03*
X76930000Y-136965000D03*
X77730000Y-136965000D03*
D20*
X79180000Y-135515000D03*
X79180000Y-134715000D03*
X79180000Y-133915000D03*
X79180000Y-133115000D03*
X79180000Y-132315000D03*
X79180000Y-131515000D03*
X79180000Y-130715000D03*
X79180000Y-129915000D03*
D21*
X77730000Y-128465000D03*
X76930000Y-128465000D03*
X76130000Y-128465000D03*
X75330000Y-128465000D03*
X74530000Y-128465000D03*
X73730000Y-128465000D03*
X72930000Y-128465000D03*
X72130000Y-128465000D03*
D22*
X72560000Y-89710000D03*
X72010000Y-83710000D03*
X71560000Y-80210000D03*
X78610000Y-83810000D03*
D23*
X75410000Y-92810000D03*
X77410000Y-92810000D03*
X73410000Y-92810000D03*
D22*
X78610000Y-80410000D03*
D14*
X59175000Y-113725000D03*
D15*
X56635000Y-113725000D03*
X54095000Y-113725000D03*
D14*
X74700000Y-123150000D03*
D15*
X77240000Y-123150000D03*
X79780000Y-123150000D03*
D14*
X49544500Y-121862000D03*
D15*
X47004500Y-121862000D03*
X44464500Y-121862000D03*
X41924500Y-121862000D03*
D24*
X54820000Y-122800000D03*
D25*
X54820000Y-125340000D03*
X54820000Y-127880000D03*
X54820000Y-130420000D03*
X54820000Y-132960000D03*
D24*
X105092500Y-117030500D03*
D25*
X105092500Y-114490500D03*
X105092500Y-111950500D03*
D26*
X41924500Y-115305000D03*
X41924500Y-118005000D03*
X44464500Y-115305000D03*
X44464500Y-118005000D03*
X47004500Y-115305000D03*
X47004500Y-118005000D03*
X49544500Y-115305000D03*
X49544500Y-118005000D03*
D27*
X63225000Y-101600000D03*
X62575000Y-101600000D03*
X61925000Y-101600000D03*
X61275000Y-101600000D03*
X60625000Y-101600000D03*
X59975000Y-101600000D03*
X59325000Y-101600000D03*
X58675000Y-101600000D03*
X58025000Y-101600000D03*
X57375000Y-101600000D03*
X56725000Y-101600000D03*
X56075000Y-101600000D03*
X55425000Y-101600000D03*
X54775000Y-101600000D03*
X54775000Y-108800000D03*
X55425000Y-108800000D03*
X56075000Y-108800000D03*
X56725000Y-108800000D03*
X57375000Y-108800000D03*
X58025000Y-108800000D03*
X58675000Y-108800000D03*
X59325000Y-108800000D03*
X59975000Y-108800000D03*
X60625000Y-108800000D03*
X61275000Y-108800000D03*
X61925000Y-108800000D03*
X62575000Y-108800000D03*
X63225000Y-108800000D03*
D28*
X98091500Y-115250000D03*
X98091500Y-113350000D03*
X96091500Y-114300000D03*
D29*
X77855000Y-102523500D03*
X77205000Y-102523500D03*
X76555000Y-102523500D03*
X75905000Y-102523500D03*
X75255000Y-102523500D03*
X74605000Y-102523500D03*
X73955000Y-102523500D03*
X73305000Y-102523500D03*
X72655000Y-102523500D03*
X72005000Y-102523500D03*
X72005000Y-108423500D03*
X72655000Y-108423500D03*
X73305000Y-108423500D03*
X73955000Y-108423500D03*
X74605000Y-108423500D03*
X75255000Y-108423500D03*
X75905000Y-108423500D03*
X76555000Y-108423500D03*
X77205000Y-108423500D03*
X77855000Y-108423500D03*
D30*
X48410000Y-93480000D03*
X51210000Y-105000000D03*
X72700000Y-111800000D03*
X81350000Y-100500000D03*
X81350000Y-98100000D03*
D31*
X69210000Y-100170000D03*
X66510000Y-100170000D03*
D26*
X51080000Y-100240000D03*
X51080000Y-97540000D03*
D31*
X69210000Y-102390000D03*
X66510000Y-102390000D03*
X66540000Y-97970000D03*
X69240000Y-97970000D03*
D26*
X61400000Y-125850000D03*
X61400000Y-123150000D03*
D31*
X88500000Y-123650000D03*
X85800000Y-123650000D03*
D26*
X77200000Y-116900000D03*
X77200000Y-119600000D03*
X74700000Y-116900000D03*
X74700000Y-119600000D03*
D16*
X83300000Y-128150000D03*
D17*
X83300000Y-133150000D03*
D16*
X82810000Y-87400000D03*
D17*
X82810000Y-92400000D03*
D16*
X68620000Y-82640000D03*
D17*
X63620000Y-82640000D03*
D16*
X64650000Y-123900000D03*
D17*
X69650000Y-123900000D03*
D16*
X94742000Y-119697500D03*
D17*
X99742000Y-119697500D03*
D16*
X68550000Y-89400000D03*
D17*
X68550000Y-94400000D03*
D16*
X63140000Y-146430000D03*
D17*
X68140000Y-146430000D03*
D32*
X77216000Y-142367000D03*
D33*
X77216000Y-144907000D03*
X74676000Y-142367000D03*
X74676000Y-144907000D03*
X72136000Y-142367000D03*
X72136000Y-144907000D03*
D16*
X83790000Y-141960000D03*
D17*
X83790000Y-136960000D03*
D34*
X55990000Y-104230000D03*
X71340000Y-97520000D03*
X61250000Y-110730000D03*
X61940000Y-100070000D03*
X80950000Y-131900000D03*
X68000000Y-132150000D03*
X75850000Y-110200000D03*
X73600000Y-110200000D03*
X76300000Y-100150000D03*
X73100000Y-101000000D03*
X63280000Y-100150000D03*
X50060000Y-95310000D03*
X56940000Y-103370000D03*
X72500000Y-135050000D03*
X74500000Y-126400000D03*
X74358500Y-130048000D03*
X68250000Y-114950000D03*
X72350000Y-114950000D03*
X97150000Y-112100000D03*
X90750000Y-114950000D03*
X90220000Y-123720000D03*
X70400000Y-127900000D03*
X72700000Y-130150000D03*
X72900000Y-126450000D03*
X71050000Y-126500000D03*
X68210000Y-109390000D03*
X68340000Y-106700000D03*
X70810000Y-103020000D03*
X66460000Y-107640000D03*
X73000000Y-120800000D03*
X70350000Y-109400000D03*
X70350000Y-107750000D03*
X69200000Y-106250000D03*
X69150000Y-109400000D03*
X75255000Y-100680000D03*
X68280000Y-113140000D03*
X73700000Y-99850000D03*
X65780000Y-106880000D03*
D35*
X63225000Y-108800000D02*
X63225000Y-110335000D01*
X63110000Y-110450000D02*
X62575000Y-110450000D01*
X63225000Y-110335000D02*
X63110000Y-110450000D01*
X59325000Y-108800000D02*
X59325000Y-110405000D01*
X59370000Y-110450000D02*
X60000000Y-110450000D01*
X59325000Y-110405000D02*
X59370000Y-110450000D01*
X56075000Y-101600000D02*
X56075000Y-104145000D01*
X56075000Y-104145000D02*
X55990000Y-104230000D01*
X69240000Y-97970000D02*
X70890000Y-97970000D01*
X70890000Y-97970000D02*
X71340000Y-97520000D01*
X61260000Y-110390000D02*
X61260000Y-110720000D01*
X61260000Y-110720000D02*
X61250000Y-110730000D01*
X60000000Y-110450000D02*
X60000000Y-108825000D01*
X60000000Y-108825000D02*
X59975000Y-108800000D01*
X60700000Y-110450000D02*
X60700000Y-108875000D01*
X60700000Y-108875000D02*
X60625000Y-108800000D01*
X61260000Y-110450000D02*
X61260000Y-110390000D01*
X61260000Y-110390000D02*
X61260000Y-108815000D01*
X61260000Y-108815000D02*
X61275000Y-108800000D01*
X61925000Y-108800000D02*
X61925000Y-110450000D01*
X61900000Y-110370000D02*
X61900000Y-110450000D01*
X61900000Y-110425000D02*
X61900000Y-110370000D01*
X61925000Y-110450000D02*
X61900000Y-110425000D01*
X62575000Y-108800000D02*
X62575000Y-110450000D01*
X62560000Y-110380000D02*
X62560000Y-110450000D01*
X62560000Y-110435000D02*
X62560000Y-110380000D01*
X62575000Y-110450000D02*
X62560000Y-110435000D01*
X60000000Y-110450000D02*
X60700000Y-110450000D01*
X60700000Y-110450000D02*
X61260000Y-110450000D01*
X61260000Y-110450000D02*
X61900000Y-110450000D01*
X61900000Y-110450000D02*
X62560000Y-110450000D01*
X62575000Y-101600000D02*
X62575000Y-100125000D01*
X61925000Y-100085000D02*
X61940000Y-100070000D01*
X61925000Y-100085000D02*
X61925000Y-101600000D01*
X62520000Y-100070000D02*
X61940000Y-100070000D01*
X62575000Y-100125000D02*
X62520000Y-100070000D01*
X69220000Y-102620000D02*
X69220000Y-100280000D01*
X69220000Y-100280000D02*
X69240000Y-100260000D01*
X69240000Y-100260000D02*
X69240000Y-97970000D01*
X79180000Y-132315000D02*
X80535000Y-132315000D01*
X80535000Y-132315000D02*
X80950000Y-131900000D01*
X68800000Y-132150000D02*
X68000000Y-132150000D01*
X75905000Y-108423500D02*
X75905000Y-110145000D01*
X75905000Y-110145000D02*
X75850000Y-110200000D01*
X73305000Y-108423500D02*
X73305000Y-109905000D01*
X73305000Y-109905000D02*
X73600000Y-110200000D01*
X75905000Y-102523500D02*
X75905000Y-100545000D01*
X75905000Y-100545000D02*
X76300000Y-100150000D01*
X73305000Y-102523500D02*
X73305000Y-101205000D01*
X73305000Y-101205000D02*
X73100000Y-101000000D01*
X70680000Y-133115000D02*
X69215000Y-133115000D01*
X68885000Y-131515000D02*
X70680000Y-131515000D01*
X68800000Y-131600000D02*
X68885000Y-131515000D01*
X68800000Y-132700000D02*
X68800000Y-132150000D01*
X68800000Y-132150000D02*
X68800000Y-131600000D01*
X69215000Y-133115000D02*
X68800000Y-132700000D01*
D36*
X96091500Y-114300000D02*
X96091500Y-118348000D01*
X96091500Y-118348000D02*
X94742000Y-119697500D01*
X96091500Y-114300000D02*
X96091500Y-110680000D01*
X96091500Y-110680000D02*
X94568000Y-109156500D01*
D35*
X79180000Y-133115000D02*
X83265000Y-133115000D01*
X83265000Y-133115000D02*
X83300000Y-133150000D01*
X63620000Y-82640000D02*
X64580000Y-82640000D01*
X70370000Y-88430000D02*
X70370000Y-92620000D01*
X64580000Y-82640000D02*
X70370000Y-88430000D01*
X63225000Y-101600000D02*
X63225000Y-100205000D01*
X63225000Y-100205000D02*
X63280000Y-100150000D01*
X54980000Y-98780000D02*
X53710000Y-98780000D01*
X52380000Y-100110000D02*
X52250000Y-100240000D01*
X52250000Y-100240000D02*
X51080000Y-100240000D01*
X53710000Y-98780000D02*
X52380000Y-100110000D01*
X73800000Y-91200000D02*
X73800000Y-91180000D01*
X73800000Y-91180000D02*
X75080000Y-89900000D01*
X75080000Y-89900000D02*
X78320000Y-89900000D01*
X71790000Y-91200000D02*
X70370000Y-92620000D01*
X71790000Y-91200000D02*
X73800000Y-91200000D01*
X89415000Y-103015000D02*
X89415000Y-100025000D01*
X82890000Y-89900000D02*
X78320000Y-89900000D01*
X85060000Y-92070000D02*
X82890000Y-89900000D01*
X85060000Y-95670000D02*
X85060000Y-92070000D01*
X89415000Y-100025000D02*
X85060000Y-95670000D01*
X70370000Y-92620000D02*
X68590000Y-94400000D01*
X82810000Y-92400000D02*
X82770000Y-92400000D01*
X82770000Y-92400000D02*
X81510000Y-91140000D01*
X75410000Y-91320000D02*
X75410000Y-92810000D01*
X75590000Y-91140000D02*
X75410000Y-91320000D01*
X77080000Y-91140000D02*
X75590000Y-91140000D01*
X81510000Y-91140000D02*
X77080000Y-91140000D01*
X83790000Y-136960000D02*
X83790000Y-135090000D01*
X101090000Y-121045500D02*
X99742000Y-119697500D01*
X101090000Y-122380000D02*
X101090000Y-121045500D01*
X99050000Y-124420000D02*
X101090000Y-122380000D01*
X92840000Y-124420000D02*
X99050000Y-124420000D01*
X91950000Y-125310000D02*
X92840000Y-124420000D01*
X88270000Y-125310000D02*
X91950000Y-125310000D01*
X87400000Y-126180000D02*
X88270000Y-125310000D01*
X87400000Y-131480000D02*
X87400000Y-126180000D01*
X83790000Y-135090000D02*
X87400000Y-131480000D01*
X50060000Y-95310000D02*
X49850000Y-95100000D01*
X49850000Y-95100000D02*
X49850000Y-94570000D01*
X53870000Y-85240000D02*
X58290000Y-82640000D01*
X49850000Y-94570000D02*
X49850000Y-89260000D01*
X49850000Y-89260000D02*
X53870000Y-85240000D01*
X63620000Y-82640000D02*
X58290000Y-82640000D01*
X56725000Y-103155000D02*
X56940000Y-103370000D01*
X56725000Y-103155000D02*
X56725000Y-101600000D01*
X68550000Y-94400000D02*
X68590000Y-94400000D01*
X88710000Y-103210000D02*
X88710000Y-100330000D01*
X88710000Y-100330000D02*
X84550000Y-96170000D01*
X84550000Y-96170000D02*
X84550000Y-94140000D01*
X84550000Y-94140000D02*
X82810000Y-92400000D01*
X99742000Y-119697500D02*
X98850000Y-120589500D01*
X98850000Y-121300000D02*
X98850000Y-120589500D01*
X97700000Y-122450000D02*
X98850000Y-121300000D01*
X93650000Y-122450000D02*
X97700000Y-122450000D01*
X92550000Y-121350000D02*
X93650000Y-122450000D01*
X92550000Y-107050000D02*
X92550000Y-121350000D01*
X88710000Y-103210000D02*
X92550000Y-107050000D01*
X72500000Y-135050000D02*
X72900000Y-134650000D01*
X72900000Y-134650000D02*
X72900000Y-133915000D01*
X83790000Y-136960000D02*
X83330000Y-136960000D01*
X83330000Y-136960000D02*
X81085000Y-134715000D01*
X81085000Y-134715000D02*
X79180000Y-134715000D01*
X56725000Y-101600000D02*
X56725000Y-100525000D01*
X56725000Y-100525000D02*
X54980000Y-98780000D01*
X54980000Y-98780000D02*
X55010000Y-98810000D01*
X73955000Y-102523500D02*
X73955000Y-103945000D01*
X74000000Y-103900000D02*
X76555000Y-103900000D01*
X73955000Y-103945000D02*
X74000000Y-103900000D01*
X76555000Y-102523500D02*
X76555000Y-103900000D01*
X90100000Y-122200000D02*
X91450000Y-122200000D01*
X77200000Y-116900000D02*
X77950000Y-116900000D01*
X83250000Y-122200000D02*
X90100000Y-122200000D01*
X77950000Y-116900000D02*
X83250000Y-122200000D01*
X92175000Y-122925000D02*
X92900000Y-123650000D01*
X92900000Y-123650000D02*
X98700000Y-123650000D01*
X98700000Y-123650000D02*
X100150000Y-122200000D01*
X100150000Y-122200000D02*
X100150000Y-120105500D01*
X91450000Y-122200000D02*
X92175000Y-122925000D01*
X100150000Y-120105500D02*
X99742000Y-119697500D01*
X100150000Y-120105500D02*
X99742000Y-119697500D01*
X83629500Y-103458000D02*
X88008000Y-103458000D01*
X99742000Y-121708000D02*
X99742000Y-119697500D01*
X98350000Y-123100000D02*
X99742000Y-121708000D01*
X93350000Y-123100000D02*
X98350000Y-123100000D01*
X91850000Y-121600000D02*
X93350000Y-123100000D01*
X91850000Y-107300000D02*
X91850000Y-121600000D01*
X88008000Y-103458000D02*
X91850000Y-107300000D01*
X97200000Y-121700000D02*
X99202500Y-119697500D01*
X93950000Y-121700000D02*
X97200000Y-121700000D01*
X93200000Y-120950000D02*
X93950000Y-121700000D01*
X93200000Y-106800000D02*
X93200000Y-120950000D01*
X89400000Y-103000000D02*
X89415000Y-103015000D01*
X89415000Y-103015000D02*
X93200000Y-106800000D01*
X99202500Y-119697500D02*
X99742000Y-119697500D01*
X77200000Y-116900000D02*
X74700000Y-116900000D01*
X70680000Y-132315000D02*
X72265000Y-132315000D01*
X72900000Y-132950000D02*
X72900000Y-133915000D01*
X72265000Y-132315000D02*
X72900000Y-132950000D01*
X70680000Y-133915000D02*
X72900000Y-133915000D01*
X72900000Y-133915000D02*
X76015000Y-133915000D01*
X76815000Y-134715000D02*
X79180000Y-134715000D01*
X76015000Y-133915000D02*
X76815000Y-134715000D01*
X76555000Y-103900000D02*
X83187500Y-103900000D01*
X83187500Y-103900000D02*
X83629500Y-103458000D01*
X76555000Y-103900000D02*
X76555000Y-105845000D01*
X76555000Y-105845000D02*
X75850000Y-106550000D01*
X73955000Y-108423500D02*
X73955000Y-106995000D01*
X73955000Y-106995000D02*
X74400000Y-106550000D01*
X74400000Y-106550000D02*
X75850000Y-106550000D01*
X76555000Y-107255000D02*
X76555000Y-108423500D01*
X75850000Y-106550000D02*
X76555000Y-107255000D01*
D36*
X105092500Y-114490500D02*
X98851000Y-114490500D01*
X98851000Y-114490500D02*
X98091500Y-115250000D01*
X99742000Y-119697500D02*
X99742000Y-116900500D01*
X99742000Y-116900500D02*
X98091500Y-115250000D01*
D35*
X64650000Y-123900000D02*
X65800000Y-123900000D01*
X66500000Y-123200000D02*
X66500000Y-119750000D01*
X65800000Y-123900000D02*
X66500000Y-123200000D01*
X74530000Y-126430000D02*
X74530000Y-128465000D01*
X74500000Y-126400000D02*
X74530000Y-126430000D01*
X74530000Y-129876500D02*
X74530000Y-128465000D01*
X74358500Y-130048000D02*
X74530000Y-129876500D01*
X70680000Y-134715000D02*
X69585000Y-134715000D01*
X66910000Y-131269060D02*
X65300000Y-129659060D01*
X66910000Y-132040000D02*
X66910000Y-131269060D01*
X69585000Y-134715000D02*
X66910000Y-132040000D01*
X61700000Y-130200000D02*
X64759060Y-130200000D01*
X64759060Y-130200000D02*
X65300000Y-129659060D01*
X65300000Y-134540940D02*
X68310940Y-134540940D01*
X69285000Y-135515000D02*
X70680000Y-135515000D01*
X68310940Y-134540940D02*
X69285000Y-135515000D01*
X46880000Y-102919060D02*
X46880000Y-97630000D01*
X46880000Y-97630000D02*
X47000000Y-97510000D01*
X46880000Y-102919060D02*
X53455940Y-102919060D01*
X53455940Y-102919060D02*
X54775000Y-101600000D01*
X102020000Y-122930000D02*
X102000000Y-122930000D01*
X102020000Y-122930000D02*
X105370000Y-119580000D01*
X105370000Y-119580000D02*
X106900000Y-119580000D01*
X106900000Y-119580000D02*
X107490000Y-118990000D01*
X107490000Y-118990000D02*
X107490000Y-112660000D01*
X107490000Y-112660000D02*
X106780500Y-111950500D01*
X105092500Y-111950500D02*
X106780500Y-111950500D01*
X78733000Y-144907000D02*
X77216000Y-144907000D01*
X79940000Y-143700000D02*
X78733000Y-144907000D01*
X79940000Y-143010000D02*
X79940000Y-143700000D01*
X85380000Y-137570000D02*
X79940000Y-143010000D01*
X85380000Y-135030000D02*
X85380000Y-137570000D01*
X88010000Y-132400000D02*
X85380000Y-135030000D01*
X88010000Y-126800000D02*
X88010000Y-132400000D01*
X88840000Y-125970000D02*
X88010000Y-126800000D01*
X98960000Y-125970000D02*
X88840000Y-125970000D01*
X102000000Y-122930000D02*
X98960000Y-125970000D01*
D36*
X88050000Y-114950000D02*
X90750000Y-114950000D01*
X58880000Y-118170000D02*
X62100000Y-114950000D01*
X62100000Y-114950000D02*
X68250000Y-114950000D01*
X72350000Y-114950000D02*
X88050000Y-114950000D01*
X58880000Y-119750000D02*
X58880000Y-118170000D01*
X97150000Y-112100000D02*
X98091500Y-113041500D01*
X98091500Y-113041500D02*
X98091500Y-113350000D01*
X77150000Y-144973000D02*
X77216000Y-144907000D01*
X105092500Y-111950500D02*
X99491000Y-111950500D01*
X99491000Y-111950500D02*
X98091500Y-113350000D01*
X98091500Y-113350000D02*
X98091500Y-110633000D01*
X98091500Y-110633000D02*
X99568000Y-109156500D01*
D35*
X46880000Y-107800940D02*
X53775940Y-107800940D01*
X53775940Y-107800940D02*
X54775000Y-108800000D01*
X46880000Y-107800940D02*
X43469060Y-107800940D01*
X43469060Y-107800940D02*
X42160000Y-109110000D01*
X77730000Y-136965000D02*
X77730000Y-141853000D01*
X77730000Y-141853000D02*
X77216000Y-142367000D01*
X74676000Y-142367000D02*
X74676000Y-142938500D01*
X74676000Y-142938500D02*
X75438000Y-143700500D01*
X75438000Y-143700500D02*
X78168500Y-143700500D01*
X78168500Y-143700500D02*
X79180000Y-142689000D01*
X79180000Y-142689000D02*
X79180000Y-135515000D01*
X74676000Y-144907000D02*
X74676000Y-144462500D01*
X74676000Y-144462500D02*
X73406000Y-143192500D01*
X73406000Y-143192500D02*
X73406000Y-141732000D01*
X73406000Y-141732000D02*
X76930000Y-138208000D01*
X76930000Y-138208000D02*
X76930000Y-136965000D01*
X90150000Y-123650000D02*
X88500000Y-123650000D01*
X90220000Y-123720000D02*
X90150000Y-123650000D01*
X79180000Y-130715000D02*
X85185000Y-130715000D01*
X85800000Y-130100000D02*
X85800000Y-123650000D01*
X85185000Y-130715000D02*
X85800000Y-130100000D01*
X61400000Y-125850000D02*
X61700000Y-125850000D01*
X61700000Y-125850000D02*
X62900000Y-127050000D01*
X62900000Y-127050000D02*
X69550000Y-127050000D01*
X69550000Y-127050000D02*
X70400000Y-127900000D01*
X72700000Y-130150000D02*
X72750000Y-130100000D01*
X72750000Y-130100000D02*
X73250000Y-130100000D01*
X73250000Y-130100000D02*
X73730000Y-129620000D01*
X73730000Y-129620000D02*
X73730000Y-128465000D01*
X63960000Y-119750000D02*
X63960000Y-121240000D01*
X72930000Y-126480000D02*
X72930000Y-128465000D01*
X72900000Y-126450000D02*
X72930000Y-126480000D01*
X63300000Y-126500000D02*
X71050000Y-126500000D01*
X62950000Y-126150000D02*
X63300000Y-126500000D01*
X62950000Y-122250000D02*
X62950000Y-126150000D01*
X63960000Y-121240000D02*
X62950000Y-122250000D01*
X59975000Y-101600000D02*
X59975000Y-102675000D01*
X72130000Y-122090000D02*
X72130000Y-128465000D01*
X69280000Y-119240000D02*
X72130000Y-122090000D01*
X69280000Y-110460000D02*
X69280000Y-119240000D01*
X68210000Y-109390000D02*
X69280000Y-110460000D01*
X66720000Y-105080000D02*
X68340000Y-106700000D01*
X62380000Y-105080000D02*
X66720000Y-105080000D01*
X59975000Y-102675000D02*
X62380000Y-105080000D01*
X58675000Y-108800000D02*
X58675000Y-107495000D01*
X70910000Y-100460000D02*
X74860000Y-96510000D01*
X70910000Y-102920000D02*
X70910000Y-100460000D01*
X70810000Y-103020000D02*
X70910000Y-102920000D01*
X65220000Y-107640000D02*
X66460000Y-107640000D01*
X64980000Y-107400000D02*
X65220000Y-107640000D01*
X58770000Y-107400000D02*
X64980000Y-107400000D01*
X58675000Y-107495000D02*
X58770000Y-107400000D01*
X77410000Y-92810000D02*
X77410000Y-93960000D01*
X77410000Y-93960000D02*
X74860000Y-96510000D01*
X74860000Y-96510000D02*
X74870000Y-96510000D01*
X56635000Y-113725000D02*
X56635000Y-114335000D01*
X58025000Y-108800000D02*
X58025000Y-110585000D01*
X56635000Y-111975000D02*
X56635000Y-113725000D01*
X58025000Y-110585000D02*
X56635000Y-111975000D01*
X61400000Y-123150000D02*
X61400000Y-119770000D01*
X61400000Y-119770000D02*
X61420000Y-119750000D01*
X47004500Y-121862000D02*
X47004500Y-118005000D01*
X44464500Y-121862000D02*
X44464500Y-118005000D01*
X41924500Y-121862000D02*
X41924500Y-118005000D01*
X66510000Y-100170000D02*
X65980000Y-100170000D01*
X65980000Y-100170000D02*
X64720000Y-98910000D01*
X58675000Y-100465000D02*
X58675000Y-101600000D01*
X60230000Y-98910000D02*
X58675000Y-100465000D01*
X64720000Y-98910000D02*
X60230000Y-98910000D01*
X66510000Y-100170000D02*
X66140000Y-100170000D01*
X51160000Y-98100000D02*
X55050000Y-98100000D01*
X57375000Y-100425000D02*
X57375000Y-101600000D01*
X55050000Y-98100000D02*
X57375000Y-100425000D01*
X66510000Y-102390000D02*
X66040000Y-102390000D01*
X66040000Y-102390000D02*
X64730000Y-101080000D01*
X64730000Y-101080000D02*
X64730000Y-99910000D01*
X64730000Y-99910000D02*
X64220000Y-99400000D01*
X64220000Y-99400000D02*
X60730000Y-99400000D01*
X60730000Y-99400000D02*
X60625000Y-99505000D01*
X60625000Y-99505000D02*
X60625000Y-101600000D01*
X58025000Y-101600000D02*
X58025000Y-100465000D01*
X60220000Y-98270000D02*
X66240000Y-98270000D01*
X58025000Y-100465000D02*
X60220000Y-98270000D01*
X66240000Y-98270000D02*
X66540000Y-97970000D01*
X70680000Y-129915000D02*
X68805000Y-129915000D01*
X56750000Y-124030000D02*
X55520000Y-122800000D01*
X56750000Y-125780000D02*
X56750000Y-124030000D01*
X58720000Y-127750000D02*
X56750000Y-125780000D01*
X66640000Y-127750000D02*
X58720000Y-127750000D01*
X68805000Y-129915000D02*
X66640000Y-127750000D01*
X55520000Y-122800000D02*
X54820000Y-122800000D01*
D36*
X70680000Y-129915000D02*
X70680000Y-129860000D01*
X55460000Y-122160000D02*
X54820000Y-122800000D01*
D35*
X70680000Y-130715000D02*
X68685000Y-130715000D01*
X58300000Y-128300000D02*
X55340000Y-125340000D01*
X66270000Y-128300000D02*
X58300000Y-128300000D01*
X68685000Y-130715000D02*
X66270000Y-128300000D01*
X55340000Y-125340000D02*
X54820000Y-125340000D01*
X54820000Y-127880000D02*
X56870000Y-127880000D01*
X71275000Y-136965000D02*
X72130000Y-136965000D01*
X70920000Y-136610000D02*
X71275000Y-136965000D01*
X65080000Y-136610000D02*
X70920000Y-136610000D01*
X63610000Y-135140000D02*
X65080000Y-136610000D01*
X63610000Y-134290000D02*
X63610000Y-135140000D01*
X61620000Y-132300000D02*
X63610000Y-134290000D01*
X59210000Y-132300000D02*
X61620000Y-132300000D01*
X57930000Y-131020000D02*
X59210000Y-132300000D01*
X57930000Y-128940000D02*
X57930000Y-131020000D01*
X56870000Y-127880000D02*
X57930000Y-128940000D01*
D36*
X72130000Y-136965000D02*
X72130000Y-137670000D01*
D35*
X54820000Y-130420000D02*
X56490000Y-130420000D01*
X72930000Y-138410000D02*
X72930000Y-136965000D01*
X72640000Y-138700000D02*
X72930000Y-138410000D01*
X66330000Y-138700000D02*
X72640000Y-138700000D01*
X65870000Y-138240000D02*
X66330000Y-138700000D01*
X65850000Y-138240000D02*
X65870000Y-138240000D01*
X65110000Y-137500000D02*
X65850000Y-138240000D01*
X63030000Y-135420000D02*
X65110000Y-137500000D01*
X63030000Y-134550000D02*
X63030000Y-135420000D01*
X61510000Y-133030000D02*
X63030000Y-134550000D01*
X59100000Y-133030000D02*
X61510000Y-133030000D01*
X56490000Y-130420000D02*
X59100000Y-133030000D01*
X54820000Y-132960000D02*
X58150000Y-132960000D01*
X73730000Y-138410000D02*
X73730000Y-136965000D01*
X72920000Y-139220000D02*
X73730000Y-138410000D01*
X66090000Y-139220000D02*
X72920000Y-139220000D01*
X62420000Y-135550000D02*
X66090000Y-139220000D01*
X62420000Y-134870000D02*
X62420000Y-135550000D01*
X61140000Y-133590000D02*
X62420000Y-134870000D01*
X58780000Y-133590000D02*
X61140000Y-133590000D01*
X58150000Y-132960000D02*
X58780000Y-133590000D01*
X59325000Y-101600000D02*
X59325000Y-103065000D01*
X68110000Y-107750000D02*
X70350000Y-107750000D01*
X66210000Y-105850000D02*
X68110000Y-107750000D01*
X62110000Y-105850000D02*
X66210000Y-105850000D01*
X59325000Y-103065000D02*
X62110000Y-105850000D01*
X70350000Y-106900000D02*
X70350000Y-107750000D01*
X71100000Y-118900000D02*
X73000000Y-120800000D01*
X71100000Y-110150000D02*
X71100000Y-118900000D01*
X70350000Y-109400000D02*
X71100000Y-110150000D01*
X70350000Y-106900000D02*
X70950000Y-106900000D01*
X72655000Y-102523500D02*
X72655000Y-105945000D01*
X71700000Y-106900000D02*
X70950000Y-106900000D01*
X72655000Y-105945000D02*
X71700000Y-106900000D01*
X77240000Y-123150000D02*
X77240000Y-119640000D01*
X77240000Y-119640000D02*
X77200000Y-119600000D01*
X76130000Y-128465000D02*
X76130000Y-124260000D01*
X76130000Y-124260000D02*
X77240000Y-123150000D01*
X61275000Y-101600000D02*
X61275000Y-102585000D01*
X67200000Y-104250000D02*
X69200000Y-106250000D01*
X62940000Y-104250000D02*
X67200000Y-104250000D01*
X61275000Y-102585000D02*
X62940000Y-104250000D01*
X74400000Y-123150000D02*
X70150000Y-118900000D01*
X70150000Y-110400000D02*
X70150000Y-118900000D01*
X69150000Y-109400000D02*
X70150000Y-110400000D01*
X74400000Y-123150000D02*
X74700000Y-123150000D01*
X69800000Y-106250000D02*
X69200000Y-106250000D01*
X72005000Y-102523500D02*
X72005000Y-105645000D01*
X71400000Y-106250000D02*
X70850000Y-106250000D01*
X72005000Y-105645000D02*
X71400000Y-106250000D01*
X70850000Y-106250000D02*
X69800000Y-106250000D01*
X74700000Y-123150000D02*
X74700000Y-119600000D01*
X75330000Y-128465000D02*
X75330000Y-123780000D01*
X75330000Y-123780000D02*
X74700000Y-123150000D01*
X59175000Y-113725000D02*
X61125000Y-113725000D01*
X66426500Y-108423500D02*
X72005000Y-108423500D01*
X61125000Y-113725000D02*
X66426500Y-108423500D01*
X54095000Y-113725000D02*
X54095000Y-116555000D01*
X54100000Y-116560000D02*
X54095000Y-116555000D01*
X59150000Y-116560000D02*
X54100000Y-116560000D01*
X61530000Y-114180000D02*
X59150000Y-116560000D01*
X67240000Y-114180000D02*
X61530000Y-114180000D01*
X68280000Y-113140000D02*
X67240000Y-114180000D01*
X54095000Y-113725000D02*
X51124500Y-113725000D01*
X51124500Y-113725000D02*
X49544500Y-115305000D01*
X75255000Y-102523500D02*
X75255000Y-100680000D01*
X49544500Y-121862000D02*
X49544500Y-118005000D01*
X41924500Y-115305000D02*
X41924500Y-114375500D01*
X56075000Y-110025000D02*
X56075000Y-108800000D01*
X55700000Y-110400000D02*
X56075000Y-110025000D01*
X48750000Y-110400000D02*
X55700000Y-110400000D01*
X46230000Y-112920000D02*
X48750000Y-110400000D01*
X45790000Y-112920000D02*
X46230000Y-112920000D01*
X44870000Y-113840000D02*
X45790000Y-112920000D01*
X42460000Y-113840000D02*
X44870000Y-113840000D01*
X41924500Y-114375500D02*
X42460000Y-113840000D01*
X56725000Y-108800000D02*
X56725000Y-106795000D01*
X74605000Y-100755000D02*
X74605000Y-102523500D01*
X73700000Y-99850000D02*
X74605000Y-100755000D01*
X62090000Y-106880000D02*
X65780000Y-106880000D01*
X61280000Y-106070000D02*
X62090000Y-106880000D01*
X57450000Y-106070000D02*
X61280000Y-106070000D01*
X56725000Y-106795000D02*
X57450000Y-106070000D01*
X56725000Y-108800000D02*
X56725000Y-110215000D01*
X46029500Y-113740000D02*
X44464500Y-115305000D01*
X46380000Y-113740000D02*
X46029500Y-113740000D01*
X49130000Y-110990000D02*
X46380000Y-113740000D01*
X55950000Y-110990000D02*
X49130000Y-110990000D01*
X56725000Y-110215000D02*
X55950000Y-110990000D01*
X47004500Y-115305000D02*
X47004500Y-114725500D01*
X47004500Y-114725500D02*
X50260000Y-111470000D01*
X50260000Y-111470000D02*
X56330000Y-111470000D01*
X56330000Y-111470000D02*
X57375000Y-110425000D01*
X57375000Y-110425000D02*
X57375000Y-108800000D01*
X55425000Y-108800000D02*
X55425000Y-107085000D01*
X53340000Y-105000000D02*
X51210000Y-105000000D01*
X55425000Y-107085000D02*
X53340000Y-105000000D01*
X72700000Y-111800000D02*
X72700000Y-108468500D01*
X72700000Y-108468500D02*
X72655000Y-108423500D01*
X77855000Y-102523500D02*
X77855000Y-100895000D01*
X78250000Y-100500000D02*
X81350000Y-100500000D01*
X77855000Y-100895000D02*
X78250000Y-100500000D01*
X77205000Y-102523500D02*
X77205000Y-99045000D01*
X77700000Y-98550000D02*
X80900000Y-98550000D01*
X77205000Y-99045000D02*
X77700000Y-98550000D01*
X80900000Y-98550000D02*
X81350000Y-98100000D01*
X55425000Y-101600000D02*
X55425000Y-100065000D01*
X49090000Y-94160000D02*
X48410000Y-93480000D01*
X49090000Y-100750000D02*
X49090000Y-94160000D01*
X50410000Y-102070000D02*
X49090000Y-100750000D01*
X51920000Y-102070000D02*
X50410000Y-102070000D01*
X54380000Y-99610000D02*
X51920000Y-102070000D01*
X54970000Y-99610000D02*
X54380000Y-99610000D01*
X55425000Y-100065000D02*
X54970000Y-99610000D01*
M02*
